<svg width="1362" height="59" viewBox="0 0 1362 59" fill="none" xmlns="http://www.w3.org/2000/svg">
<path opacity="0.41" fill-rule="evenodd" clip-rule="evenodd" d="M-2.06293 0.101685H1362.06V58.9492H-2.06293V0.101685Z" fill="black"/>
</svg>
